{
  "CW": false,
  "AMTOR": true,
  "AMTORFEC": true,
  "AM": false,
  "ARDOP": true,
  "ASCII": true,
  "ATV": false,
  "BPSK31": true,
  "BPSK63": true,
  "BPSK125": true,
  "C4FM": false,
  "CHIP": true,
  "CHIP64": true,
  "CHIP128": true,
  "CLO": true,
  "CLOVER": true,
  "CONTESTIA": true,
  "DATA": true,
  "DIGVOICE": false,
  "DIGITALVOICE": false,
  "DOMINO": true,
  "DOMINOEX": true,
  "DOMINOF": true,
  "DSTAR": false,
  "DSSTV": true,
  "FAX": false,
  "FM": false,
  "FMHELL": true,
  "FSK31": true,
  "FSK441": true,
  "FT4": true,
  "FT8": true,
  "GTOR": true,
  "HELL": true,
  "HELL80": true,
  "HFSK": true,
  "ISCAT": true,
  "JS8": true,
  "JT4": true,
  "JT4A": true,
  "JT4B": true,
  "JT4C": true,
  "JT4D": true,
  "JT4E": true,
  "JT4F": true,
  "JT4G": true,
  "JT65": true,
  "JT65A": true,
  "JT65B": true,
  "JT65B2": true,
  "JT65C": true,
  "JT65C2": true,
  "JT6M": true,
  "JT9": true,
  "LSB": false,
  "MFSK": true,
  "MFSK4": true,
  "MFSK8": true,
  "MFSK16": true,
  "MFSK22": true,
  "MFSK31": true,
  "MFSK32": true,
  "MFSK64": true,
  "MFSK128": true,
  "MINIRTTY": true,
  "MSK144": true,
  "MT63": true,
  "OLIVIA": true,
  "OPERA": true,
  "PAC": true,
  "PAC2": true,
  "PAC3": true,
  "PAC4": true,
  "PACKET": true,
  "PACTOR": true,
  "PAX": true,
  "PAX2": true,
  "PHONE": false,
  "PKT": true,
  "PSK": true,
  "PSK10": true,
  "PSK31": true,
  "PSK2K": true,
  "PSK63": true,
  "PSK63F": true,
  "PSK125": true,
  "PSK250": true,
  "PSK500": true,
  "PSK1000": true,
  "PSK220F": true,
  "PSKAM10": true,
  "PSKAM31": true,
  "PSKAM50": true,
  "PSKFEC31": true,
  "PSKHELL": true,
  "Q15": true,
  "QPSK31": true,
  "QPSK63": true,
  "QPSK125": true,
  "QPSK250": true,
  "QPSK500": true,
  "QRA64": true,
  "QRA64A": true,
  "QRA64B": true,
  "QRA64C": true,
  "QRA64D": true,
  "QRA64E": true,
  "ROS": true,
  "RTTY": true,
  "RTTYM": true,
  "SIM31": true,
  "SIM64": true,
  "SSB": false,
  "SSTV": false,
  "T10": true,
  "THOR": true,
  "THRB": true,
  "THRBX": true,
  "THROB": true,
  "TOR": true,
  "USB": false,
  "VARA": true,
  "V4": true,
  "VOI": true,
  "WINMOR": true,
  "WSPR": true
}
