{
  "CA-NT": {
    "postal": "CA-NT",
    "name": "Northwest Territories",
    "mh": [
      "CP72",
      "DP22",
      "DP44",
      "DP35",
      "DP06",
      "CP97",
      "CP98",
      "CP89",
      "CP99",
      "CP79",
      "CQ70",
      "CQ60",
      "CQ50",
      "CP59",
      "CP49",
      "CQ40",
      "CP39",
      "CP29",
      "CP28",
      "CP19",
      "CP17",
      "CP27",
      "CP18",
      "CP36",
      "CP26",
      "CP35",
      "CP34",
      "CP44",
      "CP43",
      "CP53",
      "CP52",
      "CP51",
      "CP61",
      "CP60",
      "CP70",
      "CP80",
      "CP90",
      "DP00",
      "DP10",
      "DP20",
      "DP30",
      "DP40",
      "DP50",
      "DP60",
      "DP70",
      "DP80",
      "DP81",
      "DP82",
      "DP83",
      "DP84",
      "DP74",
      "DP64",
      "DP54",
      "DP45",
      "DP55",
      "DP25",
      "DP26",
      "DP16",
      "DP07",
      "DP17",
      "DQ10",
      "DP19",
      "DP09",
      "DP29",
      "DP39",
      "DP49",
      "DQ50",
      "DP59",
      "DQ51",
      "DQ52",
      "DQ53",
      "DQ54",
      "DQ55",
      "DQ56",
      "DQ57",
      "DQ58",
      "DQ59",
      "DQ48",
      "DQ38",
      "DQ47",
      "DQ37",
      "DQ27",
      "DQ28",
      "DQ17",
      "DQ07",
      "CQ96",
      "DQ06",
      "DQ16",
      "DQ26",
      "DQ36",
      "DQ46",
      "DQ45",
      "CQ86",
      "CQ85",
      "CQ95",
      "DQ15",
      "DQ25",
      "DQ35",
      "DQ44",
      "DQ34",
      "DQ24",
      "CQ84",
      "CQ94",
      "DQ05",
      "DQ14",
      "DQ04",
      "CQ74",
      "CQ73",
      "CQ83",
      "CQ93",
      "DQ03",
      "DQ13",
      "DQ23",
      "DQ33",
      "DQ43",
      "DQ42",
      "DQ32",
      "DQ22",
      "DQ12",
      "DQ02",
      "CQ92",
      "CQ82",
      "CQ72",
      "DQ41",
      "DQ31",
      "DQ21",
      "DQ11",
      "DQ01",
      "CQ91",
      "CQ81",
      "CQ71",
      "DQ40",
      "DQ30",
      "DQ20",
      "DQ00",
      "CP77",
      "CP69",
      "CP38",
      "CP48",
      "CP58",
      "CP68",
      "CP78",
      "CP88",
      "CP87",
      "CP67",
      "CP57",
      "CP47",
      "CP37",
      "CP46",
      "CP56",
      "CP66",
      "CP76",
      "CP86",
      "CP96",
      "DP15",
      "DP05",
      "CP95",
      "CP85",
      "CP75",
      "CP65",
      "CP55",
      "CP45",
      "CP54",
      "CP74",
      "CP64",
      "CP84",
      "CP94",
      "DP04",
      "DP14",
      "DP34",
      "DP24",
      "CP63",
      "CP62",
      "CP73",
      "CP82",
      "CP71",
      "CP81",
      "CP91",
      "CP92",
      "CP83",
      "CP93",
      "DP03",
      "DP02",
      "DP01",
      "DP11",
      "DP12",
      "DP13",
      "DP23",
      "DP33",
      "DP32",
      "DP21",
      "DP31",
      "DP41",
      "DP51",
      "DP61",
      "DP71",
      "DP72",
      "DP73",
      "DP63",
      "DP53",
      "DP43",
      "DP42",
      "DP52",
      "DP62"
    ],
    "dxcc": 1
  },
  "CA-NU": {
    "postal": "CA-NU",
    "name": "Nunavut",
    "mh": [
      "DP90",
      "DP91",
      "EP00",
      "EP10",
      "EP20",
      "EP31",
      "EP32",
      "EP42",
      "EP43",
      "EP54",
      "EP82",
      "EP91",
      "FP01",
      "FP02",
      "EP92",
      "FP03",
      "FP13",
      "FP04",
      "EP93",
      "EP83",
      "EP94",
      "EP84",
      "EP74",
      "EP73",
      "EP63",
      "EP75",
      "EP64",
      "FO06",
      "FO05",
      "EO93",
      "EO92",
      "FO01",
      "FO02",
      "FO03",
      "FO16",
      "FO15",
      "FO17",
      "FO18",
      "FO07",
      "EO96",
      "EO94",
      "FO04",
      "EO95",
      "FO08",
      "FO09",
      "FO19",
      "FP10",
      "FP00",
      "EO99",
      "FP50",
      "FP60",
      "FP70",
      "FP71",
      "FP72",
      "FP62",
      "FP61",
      "FP73",
      "FP74",
      "FP84",
      "FP85",
      "FP96",
      "FP97",
      "FP87",
      "FP77",
      "FP78",
      "FP68",
      "FP69",
      "FQ60",
      "FQ50",
      "FQ41",
      "FQ31",
      "FQ22",
      "FQ12",
      "FQ13",
      "FQ03",
      "EQ94",
      "FQ04",
      "FQ05",
      "FQ06",
      "FQ16",
      "FQ17",
      "FQ18",
      "FQ28",
      "FQ39",
      "FQ29",
      "FQ49",
      "FR40",
      "FR50",
      "FR60",
      "FR81",
      "FR92",
      "FR82",
      "FR72",
      "FR62",
      "FR52",
      "FR53",
      "FR42",
      "FR43",
      "FR33",
      "FR23",
      "FR13",
      "ER82",
      "FR02",
      "FR32",
      "ER92",
      "FR12",
      "FR22",
      "ER72",
      "ER62",
      "ER52",
      "ER41",
      "ER51",
      "ER61",
      "ER71",
      "ER81",
      "ER91",
      "FR71",
      "FR61",
      "FR51",
      "FR41",
      "FR31",
      "FR21",
      "FR01",
      "FR11",
      "ER21",
      "ER31",
      "ER10",
      "ER20",
      "ER30",
      "ER40",
      "ER50",
      "ER70",
      "ER60",
      "ER80",
      "ER90",
      "FR00",
      "FR20",
      "FR30",
      "FR10",
      "ER00",
      "EQ09",
      "DQ99",
      "EQ19",
      "EQ29",
      "EQ39",
      "EQ49",
      "EQ59",
      "EQ69",
      "EQ79",
      "EQ89",
      "EQ99",
      "FQ09",
      "FQ19",
      "FQ08",
      "EQ98",
      "EQ88",
      "EQ58",
      "EQ68",
      "EQ78",
      "DQ89",
      "DQ59",
      "DQ69",
      "DQ79",
      "DQ58",
      "DQ68",
      "DQ78",
      "DQ88",
      "DQ98",
      "EQ08",
      "EQ18",
      "EQ28",
      "EQ38",
      "EQ48",
      "FQ27",
      "FQ07",
      "EQ97",
      "EQ87",
      "EQ77",
      "EQ67",
      "EQ57",
      "EQ47",
      "EQ37",
      "EQ27",
      "EQ17",
      "EQ07",
      "DQ97",
      "DQ87",
      "DQ77",
      "DQ67",
      "DQ57",
      "DQ56",
      "DQ66",
      "DQ76",
      "DQ86",
      "DQ96",
      "EQ06",
      "EQ16",
      "EQ26",
      "EQ36",
      "EQ46",
      "EQ56",
      "EQ66",
      "EQ76",
      "EQ86",
      "EQ96",
      "EQ95",
      "EQ85",
      "EQ75",
      "EQ65",
      "EQ55",
      "EQ45",
      "EQ35",
      "EQ25",
      "EQ15",
      "EQ05",
      "DQ95",
      "DQ85",
      "DQ75",
      "DQ65",
      "DQ55",
      "DQ54",
      "DQ64",
      "DQ74",
      "DQ84",
      "DQ94",
      "EQ04",
      "EQ14",
      "EQ24",
      "EQ34",
      "EQ44",
      "EQ54",
      "EQ64",
      "EQ74",
      "EQ84",
      "EQ93",
      "EQ83",
      "EQ73",
      "EQ63",
      "EQ53",
      "EQ43",
      "EQ33",
      "EQ23",
      "EQ13",
      "EQ03",
      "DQ93",
      "DQ83",
      "DQ73",
      "DQ63",
      "DQ53",
      "DQ52",
      "DQ62",
      "DQ72",
      "DQ82",
      "DQ92",
      "EQ02",
      "EQ12",
      "EQ22",
      "EQ32",
      "EQ42",
      "EQ52",
      "EQ62",
      "EQ72",
      "EQ82",
      "EQ92",
      "FQ02",
      "DQ51",
      "DQ61",
      "DQ71",
      "DQ81",
      "DQ91",
      "EQ01",
      "EQ11",
      "EQ21",
      "EQ31",
      "EQ41",
      "EQ51",
      "EQ61",
      "EQ71",
      "EQ91",
      "EQ81",
      "FQ11",
      "FQ01",
      "FQ21",
      "FQ40",
      "FQ30",
      "FP86",
      "FP75",
      "FP76",
      "FP63",
      "FP64",
      "FP65",
      "FP66",
      "FP67",
      "FP58",
      "FP51",
      "FP41",
      "FP42",
      "FP32",
      "FP22",
      "FP12",
      "FP23",
      "FP33",
      "FP43",
      "FP52",
      "FP53",
      "FP14",
      "FP24",
      "FP34",
      "FP44",
      "FP54",
      "FP55",
      "FP35",
      "FP45",
      "EP85",
      "FP15",
      "FP05",
      "FP25",
      "FP26",
      "FP36",
      "FP46",
      "FP56",
      "FP57",
      "FP37",
      "FP47",
      "FP27",
      "FP17",
      "FP08",
      "FP18",
      "FP28",
      "FP38",
      "FP48",
      "FP59",
      "FP49",
      "FP39",
      "FP29",
      "FQ20",
      "FQ10",
      "FP19",
      "FP09",
      "FQ00",
      "EQ90",
      "EQ80",
      "EQ70",
      "EQ60",
      "EQ50",
      "EQ40",
      "EQ30",
      "EQ20",
      "EQ10",
      "EQ00",
      "DQ90",
      "DQ70",
      "DQ80",
      "DQ60",
      "DQ50",
      "DP59",
      "DP39",
      "DP49",
      "DP29",
      "DP19",
      "DP09",
      "DP08",
      "CP99",
      "CP98",
      "CP97",
      "DP07",
      "DP16",
      "DP17",
      "DP26",
      "DP25",
      "DP35",
      "DP45",
      "DP54",
      "DP64",
      "DP74",
      "DP84",
      "DP93",
      "DP92",
      "DP94",
      "DP55",
      "DP18",
      "DP27",
      "DP28",
      "DP38",
      "DP37",
      "DP36",
      "DP48",
      "DP47",
      "DP46",
      "DP58",
      "DP57",
      "DP56",
      "DP65",
      "DP66",
      "DP67",
      "DP68",
      "DP69",
      "DP79",
      "DP88",
      "DP77",
      "DP78",
      "DP76",
      "DP75",
      "DP85",
      "DP86",
      "DP87",
      "DP89",
      "DP99",
      "DP98",
      "DP97",
      "DP96",
      "DP95",
      "EP01",
      "EP02",
      "EP03",
      "EP04",
      "EP05",
      "EP06",
      "EP17",
      "EP08",
      "EP07",
      "EP09",
      "EP19",
      "EP18",
      "EP16",
      "EP15",
      "EP14",
      "EP13",
      "EP12",
      "EP11",
      "EP21",
      "EP22",
      "EP33",
      "EP23",
      "EP24",
      "EP34",
      "EP44",
      "EP53",
      "EP52",
      "EP62",
      "EP72",
      "EP90",
      "EP81",
      "EP71",
      "EP61",
      "EP51",
      "EP41",
      "EP30",
      "EP40",
      "EP50",
      "EP60",
      "EP70",
      "EP80",
      "EO97",
      "EO85",
      "EO75",
      "EO66",
      "EO76",
      "EO86",
      "EO56",
      "EO47",
      "EO57",
      "EO38",
      "EO37",
      "EO28",
      "EO29",
      "EO39",
      "EO49",
      "EO59",
      "EO69",
      "EO79",
      "EO89",
      "EO98",
      "EO87",
      "EO77",
      "EO67",
      "EO58",
      "EO48",
      "EO68",
      "EO78",
      "EO88",
      "EP95",
      "FP16",
      "EP96",
      "FP06",
      "EP86",
      "EP66",
      "EP65",
      "EP76",
      "EP56",
      "EP55",
      "EP45",
      "EP35",
      "EP25",
      "EP26",
      "EP36",
      "EP46",
      "EP27",
      "EP37",
      "EP47",
      "EP57",
      "EP67",
      "EP77",
      "EP87",
      "FP07",
      "EP97",
      "EP98",
      "EP88",
      "EP78",
      "EP68",
      "EP48",
      "EP38",
      "EP28",
      "EP29",
      "EP39",
      "EP49",
      "EP59",
      "EP69",
      "EP79",
      "EP89",
      "EP99",
      "EP58",
      "FO59",
      "FO58",
      "FO68",
      "FO79",
      "FO69"
    ],
    "dxcc": 1
  },
  "CA-YT": {
    "postal": "CA-YT",
    "name": "Yukon",
    "mh": [
      "BP98",
      "BP99",
      "BP97",
      "BP96",
      "BP95",
      "CP04",
      "BP94",
      "BP93",
      "BP92",
      "BP90",
      "BP91",
      "CP00",
      "CP10",
      "CP30",
      "CP40",
      "CP50",
      "CP70",
      "CP60",
      "CP51",
      "CP61",
      "CP52",
      "CP43",
      "CP53",
      "CP44",
      "CP35",
      "CP36",
      "CP26",
      "CP17",
      "CP18",
      "CP19",
      "CP09",
      "CP08",
      "CP07",
      "CP06",
      "CP16",
      "CP05",
      "CP03",
      "CP02",
      "CP01",
      "CP11",
      "CP20",
      "CP21",
      "CP31",
      "CP41",
      "CP42",
      "CP32",
      "CP34",
      "CP25",
      "CP15",
      "CP14",
      "CP24",
      "CP33",
      "CP23",
      "CP13",
      "CP12",
      "CP22"
    ],
    "dxcc": 1
  },
  "CA-MB": {
    "postal": "CA-MB",
    "name": "Manitoba",
    "mh": [
      "DN99",
      "EN09",
      "EN19",
      "DO90",
      "EO00",
      "EO10",
      "EO20",
      "DO91",
      "EO01",
      "EO11",
      "EO21",
      "DO92",
      "EO02",
      "EO12",
      "EO22",
      "DO93",
      "EO03",
      "EO13",
      "EO23",
      "EO33",
      "DO94",
      "EO04",
      "EO14",
      "EO24",
      "EO34",
      "EO44",
      "EO05",
      "EO15",
      "EO25",
      "EO35",
      "EO45",
      "EO06",
      "EO16",
      "EO26",
      "EO36",
      "EO46",
      "EO56",
      "EO07",
      "EO17",
      "EO27",
      "EO37",
      "EO47",
      "EO57",
      "EO08",
      "EO18",
      "EO28",
      "EO38",
      "EO09",
      "EO19",
      "EO29",
      "EN29",
      "DO95",
      "DO96",
      "DO97",
      "DO98",
      "DO99"
    ],
    "dxcc": 1
  },
  "CA-SK": {
    "postal": "CA-SK",
    "name": "Saskatchewan",
    "mh": [
      "DN69",
      "DN79",
      "DN89",
      "DO50",
      "DO60",
      "DO70",
      "DO80",
      "DO90",
      "DO51",
      "DO61",
      "DO71",
      "DO81",
      "DO91",
      "DO52",
      "DO62",
      "DO72",
      "DO82",
      "DO92",
      "DO53",
      "DO63",
      "DO73",
      "DO83",
      "DO93",
      "DO54",
      "DO64",
      "DO74",
      "DO84",
      "DO94",
      "DO55",
      "DO65",
      "DO75",
      "DO85",
      "DO56",
      "DO66",
      "DO76",
      "DO86",
      "DO57",
      "DO67",
      "DO77",
      "DO87",
      "DO58",
      "DO68",
      "DO78",
      "DO88",
      "DO69",
      "DO79",
      "DO89",
      "DO95",
      "DN59",
      "DO59",
      "DN99"
    ],
    "dxcc": 1
  },
  "CA-AB": {
    "postal": "CA-AB",
    "name": "Alberta",
    "mh": [
      "DN39",
      "DN49",
      "DO20",
      "DO30",
      "DO40",
      "DO11",
      "DO21",
      "DO31",
      "DO02",
      "DO12",
      "DO22",
      "DO32",
      "DO42",
      "DO03",
      "DO13",
      "DO23",
      "DO33",
      "DO43",
      "DO14",
      "DO24",
      "DO34",
      "DO44",
      "DO15",
      "DO25",
      "DO35",
      "DO06",
      "DO16",
      "DO26",
      "DO36",
      "DO46",
      "DO07",
      "DO17",
      "DO27",
      "DO37",
      "DO47",
      "DO08",
      "DO18",
      "DO28",
      "DO38",
      "DO48",
      "DO19",
      "DO29",
      "DO39",
      "DO49",
      "DO09",
      "DN29",
      "DO04",
      "DO05",
      "DO41",
      "DO45"
    ],
    "dxcc": 1
  },
  "CA-BC": {
    "postal": "CA-BC",
    "name": "British Columbia",
    "mh": [
      "CN78",
      "CN88",
      "CN69",
      "CN79",
      "CN89",
      "CN99",
      "DN09",
      "DN19",
      "DN29",
      "CO50",
      "CO60",
      "CO70",
      "CO80",
      "CO90",
      "DO00",
      "DO10",
      "DO20",
      "CO41",
      "CO51",
      "CO61",
      "CO71",
      "CO81",
      "CO91",
      "DO01",
      "DO11",
      "DO21",
      "CO32",
      "CO42",
      "CO52",
      "CO62",
      "CO72",
      "CO82",
      "CO92",
      "DO02",
      "DO12",
      "CO43",
      "CO53",
      "CO63",
      "CO73",
      "CO83",
      "CO93",
      "DO03",
      "CO34",
      "CO44",
      "CO54",
      "CO64",
      "CO74",
      "CO84",
      "CO45",
      "CO55",
      "CO65",
      "CO75",
      "CO36",
      "CO46",
      "CO56",
      "CO66",
      "CO76",
      "CO86",
      "CO37",
      "CO47",
      "CO57",
      "CO67",
      "CO77",
      "CO87",
      "CO97",
      "CO28",
      "CO38",
      "CO48",
      "CO58",
      "CO68",
      "CO78",
      "CO88",
      "CO29",
      "CO39",
      "CO49",
      "CO59",
      "CO69",
      "CO79",
      "CO89",
      "CO19",
      "CO18",
      "CO09",
      "CO99",
      "CO98",
      "CO96",
      "CO95",
      "CO94",
      "CO85",
      "CO33"
    ],
    "dxcc": 1
  },
  "CA-ON": {
    "postal": "CA-ON",
    "name": "Ontario",
    "mh": [
      "EN81",
      "EN91",
      "EN82",
      "EN92",
      "FN02",
      "EN83",
      "EN93",
      "FN03",
      "FN13",
      "EN84",
      "EN94",
      "FN04",
      "FN14",
      "EN85",
      "EN95",
      "FN05",
      "FN15",
      "EN76",
      "EN86",
      "EN96",
      "FN06",
      "EN57",
      "EN67",
      "EN77",
      "EN87",
      "EN97",
      "FN07",
      "EN28",
      "EN38",
      "EN48",
      "EN58",
      "EN68",
      "EN78",
      "EN88",
      "EN98",
      "FN08",
      "EN29",
      "EN39",
      "EN49",
      "EN59",
      "EN69",
      "EN79",
      "EN89",
      "EN99",
      "FN09",
      "EO20",
      "EO30",
      "EO40",
      "EO50",
      "EO60",
      "EO70",
      "EO80",
      "EO90",
      "FO00",
      "EO21",
      "EO31",
      "EO41",
      "EO51",
      "EO61",
      "EO71",
      "EO81",
      "EO91",
      "FO01",
      "EO22",
      "EO32",
      "EO42",
      "EO52",
      "EO62",
      "EO72",
      "EO82",
      "EO92",
      "EO23",
      "EO33",
      "EO43",
      "EO53",
      "EO63",
      "EO73",
      "EO83",
      "EO93",
      "EO34",
      "EO44",
      "EO54",
      "EO64",
      "EO74",
      "EO84",
      "EO94",
      "EO45",
      "EO55",
      "EO65",
      "EO75",
      "EO85",
      "EO46",
      "EO56",
      "EO66",
      "EO76",
      "FN24",
      "FN25"
    ],
    "dxcc": 1
  },
  "CA-QC": {
    "postal": "CA-QC",
    "name": "Québec",
    "mh": [
      "FN15",
      "FN25",
      "FN06",
      "FN16",
      "FN26",
      "FN36",
      "FN46",
      "FN56",
      "FN07",
      "FN17",
      "FN27",
      "FN37",
      "FN47",
      "FN08",
      "FN18",
      "FN28",
      "FN38",
      "FN48",
      "FN58",
      "FN09",
      "FN19",
      "FN29",
      "FN39",
      "FN49",
      "FN59",
      "FO00",
      "FO10",
      "FO20",
      "FO01",
      "FO11",
      "FO21",
      "FO31",
      "FO02",
      "FO12",
      "FO22",
      "FO32",
      "FO42",
      "FO52",
      "FO62",
      "FO72",
      "FO03",
      "FO13",
      "FO23",
      "FO33",
      "FO43",
      "FO53",
      "FO63",
      "FO04",
      "FO14",
      "FO24",
      "FO34",
      "FO44",
      "FO54",
      "FO64",
      "FO74",
      "FO05",
      "FO15",
      "FO25",
      "FO35",
      "FO45",
      "FO55",
      "FO65",
      "FO75",
      "FO85",
      "FO16",
      "FO26",
      "FO36",
      "FO46",
      "FO56",
      "FO66",
      "FO76",
      "FO17",
      "FO27",
      "FO37",
      "FO47",
      "FO57",
      "FO67",
      "FO77",
      "FO08",
      "FO18",
      "FO28",
      "FO38",
      "FO48",
      "FO58",
      "FO68",
      "FO78",
      "FO09",
      "FO19",
      "FO29",
      "FO39",
      "FO49",
      "FO59",
      "FO69",
      "FO79",
      "FP00",
      "FP10",
      "FP20",
      "FP30",
      "FP40",
      "FP50",
      "FP70",
      "FP01",
      "FP11",
      "FP21",
      "FP31",
      "FP41",
      "FP51",
      "FP02",
      "FP12",
      "FP22",
      "FP32",
      "FO86",
      "FO88",
      "FO87",
      "FO84",
      "FO82",
      "FO71",
      "FO61",
      "FO51",
      "FO41",
      "FO30",
      "FO40",
      "FO50",
      "FO60",
      "FN68",
      "FN67",
      "FN78",
      "FN79",
      "FN69",
      "FN89",
      "FN99",
      "FO70",
      "FO80",
      "FO90",
      "FN97",
      "FN87",
      "FO81",
      "FO91",
      "GO01",
      "GO00",
      "GO11",
      "FN35",
      "FN45",
      "FN57"
    ],
    "dxcc": 1
  },
  "CA-NB": {
    "postal": "CA-NB",
    "name": "New Brunswick",
    "mh": [
      "FN65",
      "FN66",
      "FN76",
      "FN77",
      "FN75",
      "FN57",
      "FN67",
      "FN68",
      "FN86",
      "FN64"
    ],
    "dxcc": 1
  },
  "CA-NS": {
    "postal": "CA-NS",
    "name": "Nova Scotia",
    "mh": [
      "FN73",
      "FN74",
      "FN84",
      "FN85",
      "FN75",
      "FN64",
      "FN63",
      "FN94",
      "FN95",
      "FN96",
      "GN05",
      "GN06",
      "FN97"
    ],
    "dxcc": 1
  },
  "CA-NL": {
    "postal": "CA-NL",
    "name": "Newfoundland and Labrador",
    "mh": [
      "GO10",
      "GO20",
      "GO21",
      "FO62",
      "FO72",
      "FO82",
      "FO92",
      "GO02",
      "GO12",
      "GO22",
      "FO63",
      "FO73",
      "FO83",
      "FO93",
      "GO03",
      "GO13",
      "GO23",
      "FO64",
      "FO74",
      "FO84",
      "FO94",
      "GO04",
      "GO14",
      "FO65",
      "FO85",
      "FO95",
      "GO05",
      "FO76",
      "FO86",
      "FO96",
      "FO77",
      "FO87",
      "FO97",
      "FO78",
      "FO88",
      "FO89",
      "FP70",
      "FO79",
      "FO71",
      "GO11",
      "GN19",
      "GN09",
      "GN08",
      "GN07",
      "GN17",
      "GN27",
      "GN18",
      "GN29",
      "GN39",
      "GN38",
      "GN37",
      "GN36",
      "GN26",
      "GN16",
      "GN28"
    ],
    "dxcc": 1
  },
  "CA-PE": {
    "postal": "CA-PE",
    "name": "Prince Edward Island",
    "mh": ["FN86", "FN85", "FN96", "FN76", "FN77", "FN87"],
    "dxcc": 1
  },
  "US-MA": {
    "postal": "US-MA",
    "name": "Massachusetts",
    "mh": ["FN51", "FN32", "FN42", "FN41"],
    "dxcc": 291
  },
  "US-MN": {
    "postal": "US-MN",
    "name": "Minnesota",
    "mh": [
      "EN13",
      "EN23",
      "EN14",
      "EN24",
      "EN34",
      "EN15",
      "EN25",
      "EN35",
      "EN16",
      "EN26",
      "EN36",
      "EN46",
      "EN17",
      "EN27",
      "EN37",
      "EN47",
      "EN28",
      "EN29",
      "EN18",
      "EN38",
      "EN48",
      "EN57",
      "EN58",
      "EN33",
      "EN43",
      "EN44"
    ],
    "dxcc": 291
  },
  "US-MT": {
    "postal": "US-MT",
    "name": "Montana",
    "mh": [
      "DN34",
      "DN25",
      "DN35",
      "DN45",
      "DN65",
      "DN26",
      "DN36",
      "DN56",
      "DN66",
      "DN76",
      "DN27",
      "DN37",
      "DN47",
      "DN57",
      "DN67",
      "DN77",
      "DN28",
      "DN38",
      "DN48",
      "DN58",
      "DN68",
      "DN78",
      "DN75",
      "DN55",
      "DN44",
      "DN18",
      "DN17",
      "DN46"
    ],
    "dxcc": 291
  },
  "US-ND": {
    "postal": "US-ND",
    "name": "North Dakota",
    "mh": [
      "DN75",
      "DN85",
      "DN95",
      "EN05",
      "EN15",
      "DN76",
      "DN86",
      "DN96",
      "EN06",
      "EN16",
      "DN77",
      "DN87",
      "DN97",
      "EN07",
      "EN17",
      "DN78",
      "DN88",
      "DN98",
      "EN08",
      "EN18"
    ],
    "dxcc": 291
  },
  "US-ID": {
    "postal": "US-ID",
    "name": "Idaho",
    "mh": [
      "DN13",
      "DN23",
      "DN33",
      "DN43",
      "DN14",
      "DN24",
      "DN34",
      "DN44",
      "DN15",
      "DN25",
      "DN35",
      "DN16",
      "DN26",
      "DN17",
      "DN27",
      "DN18",
      "DN12",
      "DN22",
      "DN32",
      "DN42"
    ],
    "dxcc": 291
  },
  "US-WA": {
    "postal": "US-WA",
    "name": "Washington",
    "mh": [
      "CN76",
      "DN06",
      "CN77",
      "CN87",
      "CN97",
      "DN07",
      "DN17",
      "CN78",
      "CN88",
      "CN98",
      "DN08",
      "DN18",
      "CN85",
      "CN86",
      "CN96",
      "CN95",
      "DN05",
      "DN16"
    ],
    "dxcc": 291
  },
  "US-AZ": {
    "postal": "US-AZ",
    "name": "Arizona",
    "mh": [
      "DM31",
      "DM41",
      "DM51",
      "DM22",
      "DM32",
      "DM42",
      "DM52",
      "DM23",
      "DM33",
      "DM43",
      "DM53",
      "DM24",
      "DM34",
      "DM44",
      "DM54",
      "DM25",
      "DM35",
      "DM45",
      "DM55",
      "DM26",
      "DM56",
      "DM46",
      "DM36",
      "FM42",
      "FM87",
      "GM13",
      "HM46"
    ],
    "dxcc": 291
  },
  "US-CA": {
    "postal": "US-CA",
    "name": "California",
    "mh": [
      "CM93",
      "DM02",
      "DM12",
      "DM22",
      "DM03",
      "DM13",
      "DM23",
      "CM94",
      "DM04",
      "DM14",
      "DM24",
      "CM95",
      "DM05",
      "DM15",
      "DM25",
      "CM86",
      "CM96",
      "DM06",
      "DM16",
      "DM26",
      "CM87",
      "CM97",
      "DM07",
      "DM17",
      "CM88",
      "CM98",
      "DM08",
      "CM79",
      "CM89",
      "CM99",
      "DM09",
      "CN70",
      "CN80",
      "CN90",
      "CN71",
      "CN81",
      "CN91"
    ],
    "dxcc": 291
  },
  "US-CO": {
    "postal": "US-CO",
    "name": "Colorado",
    "mh": [
      "DM57",
      "DM67",
      "DM77",
      "DM87",
      "DM58",
      "DM68",
      "DM78",
      "DM88",
      "DM59",
      "DM69",
      "DM79",
      "DM89",
      "DN50",
      "DN60",
      "DN70",
      "DN80"
    ],
    "dxcc": 291
  },
  "US-NV": {
    "postal": "US-NV",
    "name": "Nevada",
    "mh": [
      "DM25",
      "DM16",
      "DM26",
      "DM07",
      "DM17",
      "DM27",
      "DM08",
      "DM18",
      "DM28",
      "DM09",
      "DM19",
      "DM29",
      "DN00",
      "DN10",
      "DN20",
      "DN01",
      "DN11",
      "DN21"
    ],
    "dxcc": 291
  },
  "US-NM": {
    "postal": "US-NM",
    "name": "New Mexico",
    "mh": [
      "DM51",
      "DM52",
      "DM82",
      "DM53",
      "DM63",
      "DM73",
      "DM83",
      "DM54",
      "DM64",
      "DM74",
      "DM84",
      "DM55",
      "DM65",
      "DM75",
      "DM85",
      "DM56",
      "DM66",
      "DM76",
      "DM86",
      "DM61",
      "DM62",
      "DM72"
    ],
    "dxcc": 291
  },
  "US-OR": {
    "postal": "US-OR",
    "name": "Oregon",
    "mh": [
      "CN72",
      "CN82",
      "CN92",
      "DN02",
      "DN12",
      "CN73",
      "CN83",
      "CN93",
      "DN03",
      "DN13",
      "CN74",
      "CN84",
      "CN94",
      "DN04",
      "DN14",
      "CN75",
      "CN85",
      "CN95",
      "DN05",
      "DN15",
      "CN76",
      "CN86",
      "CN96",
      "DN06",
      "DN16"
    ],
    "dxcc": 291
  },
  "US-UT": {
    "postal": "US-UT",
    "name": "Utah",
    "mh": [
      "DM27",
      "DM37",
      "DM47",
      "DM57",
      "DM28",
      "DM38",
      "DM48",
      "DM58",
      "DM29",
      "DM39",
      "DM49",
      "DM59",
      "DN30",
      "DN40",
      "DN50",
      "DN20",
      "DN21",
      "DN31",
      "DN41"
    ],
    "dxcc": 291
  },
  "US-WY": {
    "postal": "US-WY",
    "name": "Wyoming",
    "mh": [
      "DN41",
      "DN51",
      "DN61",
      "DN71",
      "DN42",
      "DN52",
      "DN62",
      "DN72",
      "DN43",
      "DN53",
      "DN63",
      "DN73",
      "DN44",
      "DN54",
      "DN64",
      "DN74"
    ],
    "dxcc": 291
  },
  "US-AR": {
    "postal": "US-AR",
    "name": "Arkansas",
    "mh": [
      "EM23",
      "EM24",
      "EM34",
      "EM44",
      "EM25",
      "EM35",
      "EM26",
      "EM36",
      "EM33",
      "EM43",
      "EM45",
      "EM55",
      "EM46"
    ],
    "dxcc": 291
  },
  "US-IA": {
    "postal": "US-IA",
    "name": "Iowa",
    "mh": [
      "EN20",
      "EN30",
      "EN40",
      "EN11",
      "EN21",
      "EN31",
      "EN41",
      "EN12",
      "EN22",
      "EN32",
      "EN42",
      "EN13",
      "EN23",
      "EN33",
      "EN43"
    ],
    "dxcc": 291
  },
  "US-KS": {
    "postal": "US-KS",
    "name": "Kansas",
    "mh": [
      "EM08",
      "EM18",
      "EM28",
      "DM99",
      "EM09",
      "DM88",
      "DM89",
      "DM98",
      "EM19",
      "EM29",
      "EM07",
      "EM17",
      "EM27",
      "DM97",
      "DM87"
    ],
    "dxcc": 291
  },
  "US-MO": {
    "postal": "US-MO",
    "name": "Missouri",
    "mh": [
      "EM26",
      "EM36",
      "EM27",
      "EM37",
      "EM47",
      "EM57",
      "EM28",
      "EM38",
      "EM48",
      "EM58",
      "EM29",
      "EM39",
      "EM49",
      "EN20",
      "EN30",
      "EN40",
      "EM35",
      "EM46",
      "EM56"
    ],
    "dxcc": 291
  },
  "US-NE": {
    "postal": "US-NE",
    "name": "Nebraska",
    "mh": [
      "EN00",
      "DN81",
      "DN91",
      "EN01",
      "EN11",
      "EN21",
      "DN72",
      "DN92",
      "EN02",
      "EN12",
      "DN90",
      "EN10",
      "EN20",
      "DN71",
      "DN82"
    ],
    "dxcc": 291
  },
  "US-OK": {
    "postal": "US-OK",
    "name": "Oklahoma",
    "mh": [
      "EM03",
      "EM13",
      "EM23",
      "EM04",
      "EM14",
      "EM24",
      "EM05",
      "EM15",
      "EM25",
      "EM06",
      "EM16",
      "EM26",
      "DM86",
      "DM96"
    ],
    "dxcc": 291
  },
  "US-SD": {
    "postal": "US-SD",
    "name": "South Dakota",
    "mh": [
      "EN12",
      "DN83",
      "DN93",
      "EN03",
      "EN13",
      "DN84",
      "DN94",
      "EN04",
      "EN14",
      "DN85",
      "DN95",
      "EN05",
      "EN15",
      "EN02",
      "DN73",
      "DN74",
      "DN75"
    ],
    "dxcc": 291
  },
  "US-LA": {
    "postal": "US-LA",
    "name": "Louisiana",
    "mh": [
      "EL58",
      "EL39",
      "EL49",
      "EL59",
      "EM30",
      "EM40",
      "EM50",
      "EM31",
      "EM41",
      "EM22",
      "EM32",
      "EM42",
      "EM51"
    ],
    "dxcc": 291
  },
  "US-TX": {
    "postal": "US-TX",
    "name": "Texas",
    "mh": [
      "EL15",
      "EL06",
      "EL16",
      "EL07",
      "EL17",
      "DL88",
      "DL98",
      "EL08",
      "EL18",
      "EL28",
      "DL79",
      "DL89",
      "DL99",
      "EL09",
      "EL19",
      "EL29",
      "EL39",
      "DM70",
      "DM80",
      "DM90",
      "EM00",
      "EM10",
      "EM20",
      "EM30",
      "DM71",
      "DM81",
      "DM91",
      "EM01",
      "EM11",
      "EM21",
      "EM31",
      "DM92",
      "EM02",
      "EM12",
      "EM22",
      "DM83",
      "DM93",
      "EM03",
      "EM13",
      "DM84",
      "DM94",
      "EM14",
      "DM85",
      "DM61",
      "DM82",
      "DM86",
      "DM95",
      "DM96",
      "EM04",
      "EM23"
    ],
    "dxcc": 291
  },
  "US-CT": {
    "postal": "US-CT",
    "name": "Connecticut",
    "mh": ["FN30", "FN31", "FN41", "FN32", "FN42"],
    "dxcc": 291
  },
  "US-NH": {
    "postal": "US-NH",
    "name": "New Hampshire",
    "mh": ["FN45", "FN42", "FN32", "FN33", "FN44", "FN34", "FN43"],
    "dxcc": 291
  },
  "US-RI": {
    "postal": "US-RI",
    "name": "Rhode Island",
    "mh": ["FN41", "FN42"],
    "dxcc": 291
  },
  "US-DC": {
    "postal": "US-DC",
    "name": "District Of Columbia",
    "mh": ["FM18"],
    "dxcc": 291
  },
  "US-GU": {
    "postal": "US-GU",
    "name": "Guam",
    "mh": ["QK23"],
    "dxcc": 103
  },
  "US-MH": {
    "postal": "US-MH",
    "name": "Marshall Islands",
    "mh": [
      "RJ29",
      "RJ38",
      "RJ39",
      "RJ45",
      "RJ46",
      "RJ47",
      "RJ48",
      "RJ49",
      "RJ56",
      "RJ57",
      "RJ58",
      "RJ59",
      "RJ66",
      "RK11",
      "RK21",
      "RK31",
      "RK40",
      "RK41",
      "RK44"
    ],
    "dxcc": 168
  },
  "US-PR": {
    "postal": "US-PR",
    "name": "Puerto Rico",
    "mh": ["FK67", "FK68", "FK77", "FK78"],
    "dxcc": 202
  },
  "US-VI": {
    "postal": "US-VI",
    "name": "Virgin Islands",
    "mh": ["FK77", "FK78"],
    "dxcc": 285
  },
  "US-MP": {
    "postal": "US-MP",
    "name": "Northern Mariana Islands",
    "mh": ["LH89"],
    "dxcc": 4
  },
  "US-VT": {
    "postal": "US-VT",
    "name": "Vermont",
    "mh": ["FN33", "FN34", "FN35", "FN44", "FN32", "FN45"],
    "dxcc": 291
  },
  "US-AL": {
    "postal": "US-AL",
    "name": "Alabama",
    "mh": [
      "EM50",
      "EM51",
      "EM52",
      "EM62",
      "EM53",
      "EM63",
      "EM73",
      "EM72",
      "EM71",
      "EM61",
      "EM60",
      "EM54",
      "EM64",
      "EM74"
    ],
    "dxcc": 291
  },
  "US-FL": {
    "postal": "US-FL",
    "name": "Florida",
    "mh": [
      "EL94",
      "EL95",
      "EL86",
      "EL96",
      "EL87",
      "EL97",
      "EL88",
      "EL98",
      "EL79",
      "EL89",
      "EL99",
      "EM70",
      "EL84",
      "EM60",
      "EM80",
      "EM90"
    ],
    "dxcc": 291
  },
  "US-GA": {
    "postal": "US-GA",
    "name": "Georgia",
    "mh": [
      "EM70",
      "EM80",
      "EM90",
      "EM71",
      "EM81",
      "EM91",
      "EM72",
      "EM82",
      "EM92",
      "EM73",
      "EM83",
      "EM93",
      "EM74",
      "EM84"
    ],
    "dxcc": 291
  },
  "US-MS": {
    "postal": "US-MS",
    "name": "Mississippi",
    "mh": [
      "EM50",
      "EM42",
      "EM52",
      "EM43",
      "EM53",
      "EM54",
      "EM44",
      "EM41",
      "EM51"
    ],
    "dxcc": 291
  },
  "US-SC": {
    "postal": "US-SC",
    "name": "South Carolina",
    "mh": [
      "EM91",
      "EM92",
      "FM02",
      "EM83",
      "EM93",
      "FM03",
      "EM84",
      "EM94",
      "FM04",
      "EM85",
      "EM95"
    ],
    "dxcc": 291
  },
  "US-IL": {
    "postal": "US-IL",
    "name": "Illinois",
    "mh": [
      "EM47",
      "EM48",
      "EM58",
      "EM68",
      "EN41",
      "EN51",
      "EN61",
      "EN42",
      "EN52",
      "EN62",
      "EM57",
      "EM49",
      "EN40",
      "EN50",
      "EM59",
      "EM69",
      "EN60"
    ],
    "dxcc": 291
  },
  "US-IN": {
    "postal": "US-IN",
    "name": "Indiana",
    "mh": [
      "EM57",
      "EM67",
      "EM58",
      "EM68",
      "EM78",
      "EM69",
      "EM79",
      "EN60",
      "EN70",
      "EN71",
      "EN61"
    ],
    "dxcc": 291
  },
  "US-KY": {
    "postal": "US-KY",
    "name": "Kentucky",
    "mh": [
      "EM56",
      "EM66",
      "EM76",
      "EM86",
      "EM57",
      "EM67",
      "EM77",
      "EM87",
      "EM97",
      "EM68",
      "EM78",
      "EM88",
      "EM79"
    ],
    "dxcc": 291
  },
  "US-NC": {
    "postal": "US-NC",
    "name": "North Carolina",
    "mh": [
      "FM03",
      "FM13",
      "EM94",
      "FM04",
      "FM14",
      "EM95",
      "FM05",
      "FM15",
      "FM25",
      "FM06",
      "FM16",
      "FM26",
      "EM75",
      "EM96",
      "EM86",
      "EM85"
    ],
    "dxcc": 291
  },
  "US-OH": {
    "postal": "US-OH",
    "name": "Ohio",
    "mh": [
      "EM78",
      "EM88",
      "EM98",
      "EM79",
      "EM89",
      "EM99",
      "EN70",
      "EN80",
      "EN90",
      "EN71",
      "EN91",
      "EN81",
      "EN92"
    ],
    "dxcc": 291
  },
  "US-TN": {
    "postal": "US-TN",
    "name": "Tennessee",
    "mh": [
      "EM75",
      "EM56",
      "EM66",
      "EM76",
      "EM86",
      "EM96",
      "EM85",
      "EM65",
      "EM55",
      "EM45"
    ],
    "dxcc": 291
  },
  "US-VA": {
    "postal": "US-VA",
    "name": "Virginia",
    "mh": [
      "EM86",
      "EM96",
      "FM06",
      "FM16",
      "FM26",
      "EM87",
      "EM97",
      "FM07",
      "FM08",
      "FM18",
      "FM09",
      "FM19",
      "FM28",
      "FM17",
      "FM27"
    ],
    "dxcc": 291
  },
  "US-WI": {
    "postal": "US-WI",
    "name": "Wisconsin",
    "mh": [
      "EN42",
      "EN52",
      "EN62",
      "EN43",
      "EN53",
      "EN63",
      "EN34",
      "EN44",
      "EN54",
      "EN64",
      "EN35",
      "EN45",
      "EN55",
      "EN65",
      "EN36",
      "EN46",
      "EN56",
      "EN47"
    ],
    "dxcc": 291
  },
  "US-WV": {
    "postal": "US-WV",
    "name": "West Virginia",
    "mh": [
      "EM87",
      "EM97",
      "FM07",
      "EM88",
      "EM98",
      "FM08",
      "EM89",
      "EM99",
      "FM09",
      "FM19",
      "EN90",
      "FN00"
    ],
    "dxcc": 291
  },
  "US-DE": {
    "postal": "US-DE",
    "name": "Delaware",
    "mh": ["FM28", "FM29"],
    "dxcc": 291
  },
  "US-MD": {
    "postal": "US-MD",
    "name": "Maryland",
    "mh": ["FM17", "FM27", "FM08", "FM18", "FM28", "FM09", "FM19", "FM29"],
    "dxcc": 291
  },
  "US-NJ": {
    "postal": "US-NJ",
    "name": "New Jersey",
    "mh": ["FM29", "FN20", "FN30", "FN21", "FN31", "FM28"],
    "dxcc": 291
  },
  "US-NY": {
    "postal": "US-NY",
    "name": "New York",
    "mh": [
      "FN23",
      "FN02",
      "FN12",
      "FN22",
      "FN21",
      "FN30",
      "FN20",
      "FN31",
      "FN41",
      "FN32",
      "FN33",
      "FN34",
      "FN35",
      "FN24",
      "FN25",
      "FN13",
      "FN14",
      "FN03"
    ],
    "dxcc": 291
  },
  "US-PA": {
    "postal": "US-PA",
    "name": "Pennsylvania",
    "mh": [
      "EM99",
      "FM09",
      "FN00",
      "FN10",
      "FN20",
      "FM19",
      "FM29",
      "FN11",
      "FN21",
      "EN91",
      "FN02",
      "EN92",
      "FN01",
      "EN90"
    ],
    "dxcc": 291
  },
  "US-ME": {
    "postal": "US-ME",
    "name": "Maine",
    "mh": [
      "FN43",
      "FN53",
      "FN44",
      "FN54",
      "FN64",
      "FN45",
      "FN55",
      "FN65",
      "FN46",
      "FN56",
      "FN66",
      "FN57",
      "FN67"
    ],
    "dxcc": 291
  },
  "US-MI": {
    "postal": "US-MI",
    "name": "Michigan",
    "mh": [
      "EN61",
      "EN71",
      "EN81",
      "EN62",
      "EN72",
      "EN82",
      "EN63",
      "EN73",
      "EN83",
      "EN64",
      "EN74",
      "EN84",
      "EN55",
      "EN65",
      "EN75",
      "EN85",
      "EN46",
      "EN56",
      "EN66",
      "EN76",
      "EN86",
      "EN57",
      "EN67",
      "EN77",
      "EN58",
      "EN68"
    ],
    "dxcc": 291
  },
  "MX-DIF": {
    "postal": "MX-DIF",
    "name": "Distrito Federal",
    "mh": ["EK09"],
    "dxcc": 50
  },
  "MX-AGU": {
    "postal": "MX-AGU",
    "name": "Aguascalientes",
    "mh": ["DL81", "DL91", "DL82", "DL92"],
    "dxcc": 50
  },
  "MX-BCN": {
    "postal": "MX-BCN",
    "name": "Baja California",
    "mh": [
      "DL38",
      "DL28",
      "DL39",
      "DL29",
      "DM20",
      "DM10",
      "DM11",
      "DM12",
      "DM22",
      "DM21"
    ],
    "dxcc": 50
  },
  "MX-BCS": {
    "postal": "MX-BCS",
    "name": "Baja California Sur",
    "mh": [
      "DL37",
      "DL27",
      "DL47",
      "DL36",
      "DL26",
      "DL46",
      "DL45",
      "DL35",
      "DL34",
      "DL44",
      "DL54",
      "DL43",
      "DL53",
      "DL52",
      "DL42"
    ],
    "dxcc": 50
  },
  "MX-CAM": {
    "postal": "MX-CAM",
    "name": "Campeche",
    "mh": [
      "EL40",
      "EL50",
      "EK59",
      "EK58",
      "EK57",
      "EK47",
      "EK48",
      "EK38",
      "EK49"
    ],
    "dxcc": 50
  },
  "MX-CHP": {
    "postal": "MX-CHP",
    "name": "Chiapas",
    "mh": ["EK47", "EK37", "EK36", "EK26", "EK35", "EK34", "EK45", "EK46"],
    "dxcc": 50
  },
  "MX-CHH": {
    "postal": "MX-CHH",
    "name": "Chihuahua",
    "mh": [
      "DM51",
      "DM61",
      "DM71",
      "DM70",
      "DL79",
      "DL88",
      "DL89",
      "DL87",
      "DL86",
      "DL76",
      "DL66",
      "DL65",
      "DL56",
      "DL57",
      "DL58",
      "DL59",
      "DM50",
      "DM60",
      "DL69",
      "DL68",
      "DL67",
      "DL77",
      "DL78"
    ],
    "dxcc": 50
  },
  "MX-COA": {
    "postal": "MX-COA",
    "name": "Coahuila",
    "mh": [
      "DL89",
      "DL99",
      "DL98",
      "EL07",
      "DL97",
      "DL96",
      "DL95",
      "DL94",
      "DL84",
      "DL85",
      "DL86",
      "DL88",
      "DL87"
    ],
    "dxcc": 50
  },
  "MX-COL": {
    "postal": "MX-COL",
    "name": "Colima",
    "mh": ["DK89", "DK79", "DK88", "DK78"],
    "dxcc": 50
  },
  "MX-DUR": {
    "postal": "MX-DUR",
    "name": "Durango",
    "mh": [
      "DL86",
      "DL76",
      "DL66",
      "DL65",
      "DL75",
      "DL85",
      "DL84",
      "DL74",
      "DL64",
      "DL73",
      "DL83",
      "DL72"
    ],
    "dxcc": 50
  },
  "MX-GUA": {
    "postal": "MX-GUA",
    "name": "Guanajuato",
    "mh": ["DL91", "EL01", "DL90", "DL80", "DK99"],
    "dxcc": 50
  },
  "MX-GRO": {
    "postal": "MX-GRO",
    "name": "Guerrero",
    "mh": ["EK08", "DK98", "DK88", "DK87", "DK97", "EK07", "EK06"],
    "dxcc": 50
  },
  "MX-HID": {
    "postal": "MX-HID",
    "name": "Hidalgo",
    "mh": ["EL01", "EL00", "EK09"],
    "dxcc": 50
  },
  "MX-JAL": {
    "postal": "MX-JAL",
    "name": "Jalisco",
    "mh": [
      "DL91",
      "DL81",
      "DL80",
      "DL90",
      "DK89",
      "DK88",
      "DK79",
      "DL70",
      "DL71"
    ],
    "dxcc": 50
  },
  "MX-MIC": {
    "postal": "MX-MIC",
    "name": "Michoacán",
    "mh": ["DL80", "DL90", "DK99", "DK98", "DK88", "DK87", "DK89"],
    "dxcc": 50
  },
  "MX-MOR": {
    "postal": "MX-MOR",
    "name": "Morelos",
    "mh": ["EK09", "EK08"],
    "dxcc": 50
  },
  "MX-MEX": {
    "postal": "MX-MEX",
    "name": "México",
    "mh": ["EK09", "EL00", "DK99", "DK98", "EK08", "DL90"],
    "dxcc": 50
  },
  "MX-NAY": {
    "postal": "MX-NAY",
    "name": "Nayarit",
    "mh": ["DL72", "DL71", "DL81", "DL70", "DL61", "DL73"],
    "dxcc": 50
  },
  "MX-NLE": {
    "postal": "MX-NLE",
    "name": "Nuevo León",
    "mh": [
      "EL07",
      "DL97",
      "EL06",
      "DL96",
      "DL95",
      "EL05",
      "EL04",
      "DL94",
      "DL93",
      "EL03"
    ],
    "dxcc": 50
  },
  "MX-OAX": {
    "postal": "MX-OAX",
    "name": "Oaxaca",
    "mh": [
      "EK17",
      "EK18",
      "EK27",
      "EK28",
      "EK26",
      "EK37",
      "EK36",
      "EK25",
      "EK15",
      "EK16",
      "EK06",
      "EK07"
    ],
    "dxcc": 50
  },
  "MX-PUE": {
    "postal": "MX-PUE",
    "name": "Puebla",
    "mh": ["EL10", "EL00", "EK19", "EK09", "EK18", "EK17", "EK07", "EK08"],
    "dxcc": 50
  },
  "MX-QUE": {
    "postal": "MX-QUE",
    "name": "Querétaro",
    "mh": ["DL90", "EL00", "EL01", "DL91"],
    "dxcc": 50
  },
  "MX-ROO": {
    "postal": "MX-ROO",
    "name": "Quintana Roo",
    "mh": ["EL61", "EL60", "EL50", "EK59", "EK69", "EK58", "EK68", "EK57"],
    "dxcc": 50
  },
  "MX-SLP": {
    "postal": "MX-SLP",
    "name": "San Luis Potosí",
    "mh": ["DL94", "DL93", "DL83", "DL92", "DL82", "EL02", "EL01", "DL91"],
    "dxcc": 50
  },
  "MX-SIN": {
    "postal": "MX-SIN",
    "name": "Sinaloa",
    "mh": [
      "DL56",
      "DL57",
      "DL66",
      "DL65",
      "DL64",
      "DL74",
      "DL73",
      "DL72",
      "DL63",
      "DL62",
      "DL55",
      "DL54"
    ],
    "dxcc": 50
  },
  "MX-SON": {
    "postal": "MX-SON",
    "name": "Sonora",
    "mh": [
      "DM22",
      "DM21",
      "DM31",
      "DM32",
      "DM41",
      "DM51",
      "DM50",
      "DL59",
      "DL57",
      "DL58",
      "DL56",
      "DL47",
      "DL48",
      "DL49",
      "DM40",
      "DM30",
      "DL39",
      "DL38"
    ],
    "dxcc": 50
  },
  "MX-TAB": {
    "postal": "MX-TAB",
    "name": "Tabasco",
    "mh": ["EK38", "EK47", "EK48", "EK37", "EK28", "EK27"],
    "dxcc": 50
  },
  "MX-TAM": {
    "postal": "MX-TAM",
    "name": "Tamaulipas",
    "mh": [
      "EL07",
      "EL06",
      "EL15",
      "EL16",
      "EL05",
      "EL04",
      "EL03",
      "DL93",
      "EL02",
      "EL12",
      "EL13",
      "EL14",
      "DL92"
    ],
    "dxcc": 50
  },
  "MX-TLA": {
    "postal": "MX-TLA",
    "name": "Tlaxcala",
    "mh": ["EK09", "EK19"],
    "dxcc": 50
  },
  "MX-VER": {
    "postal": "MX-VER",
    "name": "Veracruz",
    "mh": [
      "EK28",
      "EK37",
      "EK27",
      "EK18",
      "EK19",
      "EK29",
      "EL10",
      "EL11",
      "EL00",
      "EL01",
      "EL02",
      "EL12"
    ],
    "dxcc": 50
  },
  "MX-YUC": {
    "postal": "MX-YUC",
    "name": "Yucatán",
    "mh": ["EL40", "EL50", "EK59", "EL60", "EL61", "EL51", "EL41"],
    "dxcc": 50
  },
  "MX-ZAC": {
    "postal": "MX-ZAC",
    "name": "Zacatecas",
    "mh": [
      "DL81",
      "DL82",
      "DL92",
      "DL91",
      "DL83",
      "DL93",
      "DL94",
      "DL84",
      "DL85",
      "DL95",
      "DL73",
      "DL72"
    ],
    "dxcc": 50
  },
  "AU-NSW": {
    "name": "New South Wales",
    "postal": "AU-NSW",
    "mh": [
      "QF19",
      "QG00",
      "QG10",
      "QG20",
      "QG30",
      "QG40",
      "QG41",
      "QG51",
      "QG50",
      "QG61",
      "QG60",
      "QF69",
      "QF68",
      "QF67",
      "QF56",
      "QF57",
      "QF55",
      "QF54",
      "QF53",
      "QF52",
      "QF43",
      "QF42",
      "QF44",
      "QF34",
      "QF33",
      "QF23",
      "QF24",
      "QF14",
      "QF15",
      "QF05",
      "QF06",
      "QF07",
      "QF08",
      "QF09",
      "QF18",
      "QF17",
      "QF16",
      "QF25",
      "QF26",
      "QF27",
      "QF28",
      "QF29",
      "QF39",
      "QF49",
      "QF59",
      "QF58",
      "QF48",
      "QF38",
      "QF37",
      "QF47",
      "QF46",
      "QF45",
      "QF35",
      "QF36"
    ],
    "dxcc": 150
  },
  "AU-VIC": {
    "name": "Victoria",
    "postal": "AU-VIC",
    "mh": [
      "QF01",
      "QF02",
      "QF03",
      "QF04",
      "QF05",
      "QF15",
      "QF14",
      "QF24",
      "QF34",
      "QF33",
      "QF43",
      "QF42",
      "QF31",
      "QF30",
      "QF21",
      "QF32",
      "QF22",
      "QF11",
      "QF12",
      "QF13",
      "QF23",
      "QF06"
    ],
    "dxcc": 150
  },
  "AU-QLD": {
    "name": "Queensland",
    "postal": "AU-QLD",
    "mh": [
      "QG11",
      "QG01",
      "QG21",
      "QG31",
      "QG41",
      "QG51",
      "QG50",
      "QG61",
      "QG62",
      "QG63",
      "QG64",
      "QG19",
      "QI10",
      "QH19",
      "QI20",
      "QH17",
      "QH18",
      "QH16",
      "QH08",
      "QH07",
      "QH06",
      "QH25",
      "QH15",
      "QH05",
      "QH04",
      "QH13",
      "QH14",
      "PH92",
      "PH93",
      "QH03",
      "QH02",
      "PH91",
      "PH90",
      "PG99",
      "PG98",
      "PG97",
      "PG96",
      "PG95",
      "PG94",
      "QG04",
      "QG03",
      "QG02",
      "QG12",
      "QG22",
      "QG32",
      "QG42",
      "QG52",
      "QG65",
      "QG54",
      "QG53",
      "QG55",
      "QG56",
      "QG57",
      "QG58",
      "QG48",
      "QG49",
      "QH40",
      "QG39",
      "QH30",
      "QH31",
      "QH32",
      "QH23",
      "QH33",
      "QH24",
      "QH12",
      "QH22",
      "QH21",
      "QH11",
      "QH01",
      "QH00",
      "QH10",
      "QH20",
      "QG09",
      "QG29",
      "QG08",
      "QG18",
      "QG28",
      "QG38",
      "QG07",
      "QG06",
      "QG05",
      "QG13",
      "QG14",
      "QG15",
      "QG16",
      "QG17",
      "QG27",
      "QG37",
      "QG47",
      "QG46",
      "QG45",
      "QG44",
      "QG43",
      "QG33",
      "QG23",
      "QG24",
      "QG25",
      "QG26",
      "QG36",
      "QG35",
      "QG34"
    ],
    "dxcc": 150
  },
  "AU-TAS": {
    "name": "Tasmania",
    "postal": "AU-TAS",
    "mh": [
      "QE37",
      "QE36",
      "QF30",
      "QF40",
      "QE49",
      "QE39",
      "QF20",
      "QF10",
      "QE19",
      "QE29",
      "QE28",
      "QE38",
      "QE48",
      "QE47",
      "QE46",
      "QE26",
      "QE27"
    ],
    "dxcc": 150
  },
  "AU-SA": {
    "name": "South Australia",
    "postal": "AU-SA",
    "mh": [
      "PG43",
      "PG53",
      "PG63",
      "PG73",
      "PG83",
      "PG93",
      "QG03",
      "QG02",
      "QG01",
      "QG00",
      "QF09",
      "QF08",
      "QF07",
      "QF06",
      "QF05",
      "QF04",
      "QF03",
      "QF02",
      "QF01",
      "PF92",
      "PF93",
      "PF94",
      "PF84",
      "PF83",
      "PF75",
      "PF74",
      "PF85",
      "PF95",
      "PF96",
      "PF86",
      "PF76",
      "PF77",
      "PF68",
      "PF58",
      "PF48",
      "PF49",
      "PG40",
      "PG41",
      "PG42",
      "PG52",
      "PG62",
      "PG72",
      "PG82",
      "PG92",
      "PG91",
      "PG81",
      "PG71",
      "PG61",
      "PG51",
      "PG50",
      "PG60",
      "PG80",
      "PG90",
      "PF99",
      "PG70",
      "PF59",
      "PF69",
      "PF79",
      "PF89",
      "PF78",
      "PF88",
      "PF98",
      "PF97",
      "PF87",
      "PF67"
    ],
    "dxcc": 150
  },
  "AU-WA": {
    "name": "Western Australia",
    "postal": "AU-WA",
    "mh": [
      "PH44",
      "PH45",
      "PH43",
      "PH42",
      "PH41",
      "PH40",
      "PG49",
      "PG48",
      "PG47",
      "PG46",
      "PG45",
      "PG44",
      "PG43",
      "PG42",
      "PG41",
      "PG40",
      "PF49",
      "PF48",
      "PF47",
      "PF37",
      "PF27",
      "PF16",
      "PF15",
      "PF26",
      "PF06",
      "OF96",
      "OF95",
      "OF84",
      "OF94",
      "OF85",
      "OF75",
      "OF76",
      "OF77",
      "OF78",
      "OF79",
      "OG70",
      "OG71",
      "OG61",
      "OG72",
      "OG63",
      "OG62",
      "OG73",
      "OG64",
      "OG74",
      "OG65",
      "OG75",
      "OG66",
      "OG67",
      "OG78",
      "OG68",
      "OG79",
      "OG89",
      "OH92",
      "OG99",
      "OH90",
      "PH00",
      "PH01",
      "PH11",
      "PH12",
      "PH13",
      "PH24",
      "PH23",
      "PH25",
      "PH35",
      "PH36",
      "PH26",
      "PH34",
      "PH33",
      "PH32",
      "PH22",
      "PH21",
      "PG28",
      "PH31",
      "PH30",
      "PG39",
      "PG38",
      "PG36",
      "PG35",
      "PG37",
      "PG29",
      "PH20",
      "PH10",
      "PG09",
      "OG77",
      "OG76",
      "OG88",
      "OG98",
      "PG08",
      "PG18",
      "PG19",
      "PG27",
      "PG07",
      "PG17",
      "OG97",
      "OG87",
      "OG86",
      "OG96",
      "PG06",
      "PG16",
      "PG26",
      "PG25",
      "PG15",
      "PG05",
      "OG95",
      "OG85",
      "OG84",
      "OG94",
      "PG04",
      "PG14",
      "PG24",
      "PG34",
      "OF86",
      "OF87",
      "OF97",
      "PF07",
      "PF17",
      "PF38",
      "PF28",
      "PF18",
      "PF08",
      "OF98",
      "OF88",
      "OF89",
      "OF99",
      "PF09",
      "PF19",
      "PF29",
      "PF39",
      "PG30",
      "PG20",
      "PG10",
      "PG00",
      "OG90",
      "OG80",
      "OG81",
      "OG91",
      "PG01",
      "PG11",
      "PG21",
      "PG31",
      "PG32",
      "PG22",
      "PG12",
      "PG02",
      "OG92",
      "OG82",
      "OG83",
      "OG93",
      "PG03",
      "PG13",
      "PG23",
      "PG33"
    ],
    "dxcc": 150
  },
  "AU-NT": {
    "name": "Northern Territory",
    "postal": "AU-NT",
    "mh": [
      "PG54",
      "PG44",
      "PG45",
      "PG46",
      "PG47",
      "PG48",
      "PG49",
      "PH40",
      "PH41",
      "PH42",
      "PH43",
      "PH44",
      "PH45",
      "PH46",
      "PH56",
      "PH57",
      "PH67",
      "PH58",
      "PH68",
      "PH77",
      "PH78",
      "PH88",
      "PH87",
      "PH85",
      "PH86",
      "PH76",
      "PH66",
      "PH55",
      "PH65",
      "PH75",
      "PH84",
      "PH83",
      "PH73",
      "PH74",
      "PH64",
      "PH54",
      "PH53",
      "PH63",
      "PH52",
      "PH62",
      "PH72",
      "PH82",
      "PH81",
      "PH80",
      "PG89",
      "PG87",
      "PG88",
      "PG86",
      "PG85",
      "PG84",
      "PG74",
      "PG64",
      "PG55",
      "PG65",
      "PG75",
      "PG76",
      "PG66",
      "PG56",
      "PG57",
      "PG67",
      "PG77",
      "PG78",
      "PG68",
      "PG58",
      "PG59",
      "PG69",
      "PG79",
      "PH70",
      "PH71",
      "PH61",
      "PH60",
      "PH50",
      "PH51",
      "PH69"
    ],
    "dxcc": 150
  },
  "AU-ACT": {
    "name": "Australian Capital Territory",
    "postal": "AU-ACT",
    "mh": ["QF44"],
    "dxcc": 150
  },
  "DE-BW": {
    "name": "Baden-Württemberg",
    "dxcc": 230,
    "mh": ["JN49", "JN59", "JN58", "JN57", "JN47", "JN37", "JN38", "JN48"],
    "postal": "DE-BW"
  },
  "DE-BY": {
    "name": "Bayern",
    "dxcc": 230,
    "mh": [
      "JN49",
      "JO40",
      "JO50",
      "JO60",
      "JN69",
      "JN68",
      "JN67",
      "JN57",
      "JN47",
      "JN58",
      "JN48",
      "JN59"
    ],
    "postal": "DE-BY"
  },
  "DE-BE": {
    "name": "Berlin",
    "dxcc": 230,
    "mh": ["JO62"],
    "postal": "DE-BE"
  },
  "DE-BB": {
    "name": "Brandenburg",
    "dxcc": 230,
    "mh": ["JO61", "JO71", "JO72", "JO62", "JO52", "JO53", "JO63", "JO73"],
    "postal": "DE-BB"
  },
  "DE-HB": {
    "name": "Bremen",
    "dxcc": 230,
    "mh": ["JO43"],
    "postal": "DE-HB"
  },
  "DE-HH": {
    "name": "Hamburg",
    "dxcc": 230,
    "mh": ["JO43", "JO53"],
    "postal": "DE-HH"
  },
  "DE-HE": {
    "name": "Hessen",
    "dxcc": 230,
    "mh": ["JN49", "JO30", "JN39", "JO40", "JO50", "JO41", "JO51"],
    "postal": "DE-HE"
  },
  "DE-MV": {
    "name": "Mecklenburg-Vorpommern",
    "dxcc": 230,
    "mh": ["JO53", "JO63", "JO73", "JO64", "JO74", "JO54"],
    "postal": "DE-MV"
  },
  "DE-NI": {
    "name": "Niedersachsen",
    "dxcc": 230,
    "mh": ["JO32", "JO33", "JO43", "JO53", "JO52", "JO51", "JO41", "JO42"],
    "postal": "DE-NI"
  },
  "DE-NW": {
    "name": "Nordrhein-Westfalen",
    "dxcc": 230,
    "mh": ["JO42", "JO32", "JO31", "JO21", "JO20", "JO30", "JO40", "JO41"],
    "postal": "DE-NW"
  },
  "DE-RP": {
    "name": "Rheinland-Pfalz",
    "dxcc": 230,
    "mh": ["JN49", "JN48", "JN39", "JO30", "JO40"],
    "postal": "DE-RP"
  },
  "DE-SL": {
    "name": "Saarland",
    "dxcc": 230,
    "mh": ["JN39"],
    "postal": "DE-SL"
  },
  "DE-SN": {
    "name": "Sachsen",
    "dxcc": 230,
    "mh": ["JO70", "JO71", "JO61", "JO60", "JO50"],
    "postal": "DE-SN"
  },
  "DE-ST": {
    "name": "Sachsen-Anhalt",
    "dxcc": 230,
    "mh": ["JO52", "JO62", "JO53", "JO61", "JO60", "JO51"],
    "postal": "DE-ST"
  },
  "DE-SH": {
    "name": "Schleswig-Holstein",
    "dxcc": 230,
    "mh": ["JO43", "JO53", "JO54", "JO44", "JO45"],
    "postal": "DE-SH"
  },
  "DE-TH": {
    "name": "Thüringen",
    "dxcc": 230,
    "mh": ["JO50", "JO60", "JO61", "JO51", "JO41", "JO40"],
    "postal": "DE-TH"
  },
  "FR-A": {
    "postal": "FR-A",
    "dxcc": 227,
    "mh": ["JN38", "JN37", "JN48", "JN49", "JN39"],
    "name": "Alsace"
  },
  "FR-B": {
    "postal": "FR-B",
    "dxcc": 227,
    "mh": ["IN93", "IN92", "JN03", "JN04", "JN05", "IN95", "IN94"],
    "name": "Aquitaine"
  },
  "FR-C": {
    "postal": "FR-C",
    "dxcc": 227,
    "mh": ["JN14", "JN16", "JN26", "JN24", "JN25", "JN15"],
    "name": "Auvergne"
  },
  "FR-E": {
    "postal": "FR-E",
    "dxcc": 227,
    "mh": ["IN78", "IN88", "IN98", "IN97", "IN87", "IN77"],
    "name": "Bretagne"
  },
  "FR-D": {
    "postal": "FR-D",
    "dxcc": 227,
    "mh": ["JN27", "JN28", "JN18", "JN17", "JN16", "JN26"],
    "name": "Bourgogne"
  },
  "FR-F": {
    "postal": "FR-F",
    "dxcc": 227,
    "mh": ["JN18", "JN17", "JN16", "JN06", "JN07", "JN08"],
    "name": "Centre"
  },
  "FR-G": {
    "postal": "FR-G",
    "dxcc": 227,
    "mh": ["JN29", "JO20", "JN19", "JN18", "JN17", "JN27", "JN28"],
    "name": "Champagne-Ardenne"
  },
  "FR-H": {
    "postal": "FR-H",
    "dxcc": 227,
    "mh": ["JN43", "JN42", "JN41"],
    "name": "Corse"
  },
  "FR-I": {
    "postal": "FR-I",
    "dxcc": 227,
    "mh": ["JN26", "JN36", "JN27", "JN37", "JN38"],
    "name": "Franche-Comté"
  },
  "FR-K": {
    "postal": "FR-K",
    "dxcc": 227,
    "mh": ["JN02", "JN12", "JN23", "JN13", "JN03", "JN14", "JN24"],
    "name": "Languedoc-Roussillon"
  },
  "FR-L": {
    "postal": "FR-L",
    "dxcc": 227,
    "mh": ["JN05", "JN06", "JN16", "JN15", "JN04", "JN14"],
    "name": "Limousin"
  },
  "FR-M": {
    "postal": "FR-M",
    "dxcc": 227,
    "mh": ["JN39", "JN29", "JN38", "JN28", "JN27", "JN37"],
    "name": "Lorraine"
  },
  "FR-P": {
    "postal": "FR-P",
    "dxcc": 227,
    "mh": ["IN99", "JN09", "JN08", "IN98"],
    "name": "Basse-Normandie"
  },
  "FR-N": {
    "postal": "FR-N",
    "dxcc": 227,
    "mh": [
      "JN02",
      "IN92",
      "JN12",
      "JN03",
      "JN13",
      "JN14",
      "JN04",
      "JN05",
      "IN93",
      "IN94"
    ],
    "name": "Midi-Pyrénées"
  },
  "FR-O": {
    "postal": "FR-O",
    "dxcc": 227,
    "mh": ["JO10", "JO11", "JO20", "JN29", "JO00"],
    "name": "Nord-Pas-de-Calais"
  },
  "FR-R": {
    "postal": "FR-R",
    "dxcc": 227,
    "mh": ["IN96", "IN86", "IN87", "IN98", "JN08", "JN07", "IN97"],
    "name": "Pays de la Loire"
  },
  "FR-S": {
    "postal": "FR-S",
    "dxcc": 227,
    "mh": ["JO00", "JN09", "JO10", "JN19", "JN29", "JN18", "JM07", "JJ23"],
    "name": "Picardie"
  },
  "FR-T": {
    "postal": "FR-T",
    "dxcc": 227,
    "mh": ["IN95", "JN05", "IN96", "IN97", "JN06", "JN07"],
    "name": "Poitou-Charentes"
  },
  "FR-U": {
    "postal": "FR-U",
    "dxcc": 227,
    "mh": ["JN34", "JN35", "JN24", "JN23", "JN33", "JN32"],
    "name": "Provence-Alpes-Côte d'Azur"
  },
  "FR-V": {
    "postal": "FR-V",
    "dxcc": 227,
    "mh": [
      "JN36",
      "JN35",
      "JN34",
      "JN24",
      "JN14",
      "JN25",
      "JN15",
      "JN26",
      "JN16"
    ],
    "name": "Rhône-Alpes"
  },
  "FR-Q": {
    "postal": "FR-Q",
    "dxcc": 227,
    "mh": ["JN09", "JN08", "JO00"],
    "name": "Haute-Normandie"
  },
  "FR-J": {
    "postal": "FR-J",
    "dxcc": 227,
    "mh": ["JN09", "JN19", "JN18", "JN08", "HK37"],
    "name": "Île-de-France"
  }
}
